24.9-verilog/top.vcd
$date
	Tue Sep 24 20:41:58 2019
$end
$version
	Icarus Verilog
$end
$timescale
	1ps
$end
$scope module top_tb $end
$var wire 1 ! data_out_valid $end
$var wire 32 " data_out [31:0] $end
$var reg 1 # clk $end
$var reg 8 $ data_in [7:0] $end
$var reg 1 % data_in_valid $end
$var reg 32 & data_out_ref [31:0] $end
$var reg 1 ' rst $end
$var integer 32 ( i [31:0] $end
$scope module uut $end
$var wire 1 # clk $end
$var wire 8 ) data_in [7:0] $end
$var wire 1 % data_in_valid $end
$var wire 32 * data_out [31:0] $end
$var wire 1 ! data_out_valid $end
$var wire 1 ' rst $end
$var wire 1 + reg_en $end
$var wire 32 , reg_data_out [31:0] $end
$var wire 32 - reg_data_in [31:0] $end
$var wire 32 . mult_out3 [31:0] $end
$var wire 16 / mult_out2 [15:0] $end
$var wire 16 0 mult_out1 [15:0] $end
$var wire 2 1 count [1:0] $end
$var wire 1 2 cnt_rst $end
$var wire 1 3 cnt_en $end
$scope module cnt $end
$var wire 1 # clk $end
$var wire 1 2 rst $end
$var wire 1 3 en $end
$var reg 2 4 data_out [1:0] $end
$upscope $end
$scope module controler $end
$var wire 1 # clk $end
$var wire 2 5 cnt_data [1:0] $end
$var wire 1 3 cnt_en $end
$var wire 1 2 cnt_rst $end
$var wire 1 % data_in_valid $end
$var wire 1 + reg_en $end
$var wire 1 ' rst $end
$var reg 1 6 state $end
$var reg 1 7 state_nxt $end
$upscope $end
$scope module preg $end
$var wire 1 # clk $end
$var wire 32 8 data_in [31:0] $end
$var wire 1 + en $end
$var reg 32 9 data_out [31:0] $end
$upscope $end
$upscope $end
$upscope $end
$enddefinitions $end
#0
$dumpvars
bx 9
bx 8
07
06
bx 5
bx 4
03
02
bx 1
bx 0
bx /
bx .
bx -
bx ,
x+
bx *
bx )
bx (
1'
bx &
0%
bx $
1#
bx "
0!
$end
#5000
0#
#10000
1#
#15000
0#
#20000
1#
#25000
0#
#30000
1#
#35000
0#
#40000
1#
#45000
0#
#50000
1#
#50100
b10 -
b10 8
1+
17
b10000 &
1!
12
1%
b10 $
b10 )
b0 (
0'
#55000
0#
#60000
b10000 .
b100 /
b100 0
13
b0 1
b0 4
b0 5
b10 "
b10 *
b10 ,
b10 9
16
1#
#60100
b10000 -
b10000 8
0!
02
0%
#65000
0#
#70000
b10000000000000000 -
b10000000000000000 8
b100000000 /
b10000000000000000 .
b100000000 0
0+
b10000 "
b10000 *
b10000 ,
b10000 9
b1 1
b1 4
b1 5
1#
#75000
0#
#80000
b10 1
b10 4
b10 5
1#
#85000
0#
#90000
b11 1
b11 4
b11 5
1#
#95000
0#
#100000
1#
#105000
0#
#110000
1#
#110100
b11 -
b11 8
1+
b1010001 &
1!
12
1%
b1 (
b11 $
b11 )
#115000
0#
#120000
b1001 /
b1010001 .
b1001 0
b0 1
b0 4
b0 5
b11 "
b11 *
b11 ,
b11 9
1#
#120100
b1010001 -
b1010001 8
0!
02
0%
#125000
0#
#130000
b10100100001101011101000001 -
b10100100001101011101000001 8
b1100110100001 /
b10100100001101011101000001 .
b1100110100001 0
0+
b1010001 "
b1010001 *
b1010001 ,
b1010001 9
b1 1
b1 4
b1 5
1#
#135000
0#
#140000
b10 1
b10 4
b10 5
1#
#145000
0#
#150000
b11 1
b11 4
b11 5
1#
#155000
0#
#160000
1#
#165000
0#
#170000
1#
#170100
b100 -
b100 8
1+
b100000000 &
1!
12
1%
b10 (
b100 $
b100 )
#175000
0#
#180000
b10000 /
b100000000 .
b10000 0
b0 1
b0 4
b0 5
b100 "
b100 *
b100 ,
b100 9
1#
#180100
b100000000 -
b100000000 8
0!
02
0%
#185000
0#
#190000
b0 -
b0 8
b0 /
b0 .
b0 0
0+
b100000000 "
b100000000 *
b100000000 ,
b100000000 9
b1 1
b1 4
b1 5
1#
#195000
0#
#200000
b10 1
b10 4
b10 5
1#
#205000
0#
#210000
b11 1
b11 4
b11 5
1#
#215000
0#
#220000
1#
#225000
0#
#230000
1#
#230100
b101 -
b101 8
1+
b1001110001 &
1!
12
1%
b11 (
b101 $
b101 )
#235000
0#
#240000
b1001110001 .
b11001 /
b11001 0
b0 1
b0 4
b0 5
b101 "
b101 *
b101 ,
b101 9
1#
#240100
b1001110001 -
b1001110001 8
0!
02
0%
#245000
0#
#250000
b11101100001010000110111111000001 -
b11101100001010000110111111000001 8
b1111010111100001 /
b11101100001010000110111111000001 .
b1111010111100001 0
0+
b1001110001 "
b1001110001 *
b1001110001 ,
b1001110001 9
b1 1
b1 4
b1 5
1#
#255000
0#
#260000
b10 1
b10 4
b10 5
1#
#265000
0#
#270000
b11 1
b11 4
b11 5
1#
#275000
0#
#280000
1#
#285000
0#
#290000
1#
#290100
b110 -
b110 8
1+
b10100010000 &
1!
12
1%
b100 (
b110 $
b110 )
#295000
0#
#300000
b100100 /
b10100010000 .
b100100 0
b0 1
b0 4
b0 5
b110 "
b110 *
b110 ,
b110 9
1#
#300100
b10100010000 -
b10100010000 8
0!
02
0%
#305000
0#
#310000
b1100101010000010000000000000000 -
b1100101010000010000000000000000 8
b1010000100000000 /
b1100101010000010000000000000000 .
b1010000100000000 0
0+
b10100010000 "
b10100010000 *
b10100010000 ,
b10100010000 9
b1 1
b1 4
b1 5
1#
#315000
0#
#320000
b10 1
b10 4
b10 5
1#
#325000
0#
#330000
b11 1
b11 4
b11 5
1#
#335000
0#
#340000
1#
#345000
0#
#350000
1#
#350100
b111 -
b111 8
1+
b100101100001 &
1!
12
1%
b101 (
b111 $
b111 )
#355000
0#
#360000
b110001 /
b100101100001 .
b110001 0
b0 1
b0 4
b0 5
b111 "
b111 *
b111 ,
b111 9
1#
#360100
b100101100001 -
b100101100001 8
0!
02
0%
#365000
0#
#370000
b11101101110101110111110110000001 -
b11101101110101110111110110000001 8
b1111011011000001 /
b11101101110101110111110110000001 .
b1111011011000001 0
0+
b100101100001 "
b100101100001 *
b100101100001 ,
b100101100001 9
b1 1
b1 4
b1 5
1#
#375000
0#
#380000
b10 1
b10 4
b10 5
1#
#385000
0#
#390000
b11 1
b11 4
b11 5
1#
#395000
0#
#400000
1#
#405000
0#
#410000
1#
#410100
b1000 -
b1000 8
1+
b1000000000000 &
1!
12
1%
b110 (
b1000 $
b1000 )
#415000
0#
#420000
b1000000 /
b1000000000000 .
b1000000 0
b0 1
b0 4
b0 5
b1000 "
b1000 *
b1000 ,
b1000 9
1#
#420100
b1000000000000 -
b1000000000000 8
0!
02
0%
#425000
0#
#430000
b0 -
b0 8
b0 /
b0 .
b0 0
0+
b1000000000000 "
b1000000000000 *
b1000000000000 ,
b1000000000000 9
b1 1
b1 4
b1 5
1#
#435000
0#
#440000
b10 1
b10 4
b10 5
1#
#445000
0#
#450000
b11 1
b11 4
b11 5
1#
#455000
0#
#460000
1#
#465000
0#
#470000
1#
#470100
b1001 -
b1001 8
1+
b1100110100001 &
1!
12
1%
b111 (
b1001 $
b1001 )
#475000
0#
#480000
b1100110100001 .
b1010001 /
b1010001 0
b0 1
b0 4
b0 5
b1001 "
b1001 *
b1001 ,
b1001 9
1#
#480100
b1100110100001 -
b1100110100001 8
0!
02
0%
#485000
0#
#490000
b10110100111111100011111010000001 -
b10110100111111100011111010000001 8
b1101011101000001 /
b10110100111111100011111010000001 .
b1101011101000001 0
0+
b1100110100001 "
b1100110100001 *
b1100110100001 ,
b1100110100001 9
b1 1
b1 4
b1 5
1#
#495000
0#
#500000
b10 1
b10 4
b10 5
1#
#505000
0#
#510000
b11 1
b11 4
b11 5
1#
#515000
0#
#520000
1#
#525000
0#
#530000
1#
#530100
b1010 -
b1010 8
1+
b10011100010000 &
1!
12
1%
b1000 (
b1010 $
b1010 )
#535000
0#
#540000
b1100100 /
b10011100010000 .
b1100100 0
b0 1
b0 4
b0 5
b1010 "
b1010 *
b1010 ,
b1010 9
1#
#540100
b10011100010000 -
b10011100010000 8
0!
02
0%
#545000
0#
#550000
b11000101110000010000000000000000 -
b11000101110000010000000000000000 8
b1110000100000000 /
b11000101110000010000000000000000 .
b1110000100000000 0
0+
b10011100010000 "
b10011100010000 *
b10011100010000 ,
b10011100010000 9
b1 1
b1 4
b1 5
1#
#555000
0#
#560000
b10 1
b10 4
b10 5
1#
#565000
0#
#570000
b11 1
b11 4
b11 5
1#
#575000
0#
#580000
1#
#585000
0#
#590000
1#
#590100
b1011 -
b1011 8
1+
b11100100110001 &
1!
12
1%
b1001 (
b1011 $
b1011 )
#595000
0#
#600000
b1111001 /
b11100100110001 .
b1111001 0
b0 1
b0 4
b0 5
b1011 "
b1011 *
b1011 ,
b1011 9
1#
#600100
b11100100110001 -
b11100100110001 8
0!
02
0%
#605000
0#
#610000
b10111011111111110001101011000001 -
b10111011111111110001101011000001 8
b1101101101100001 /
b10111011111111110001101011000001 .
b1101101101100001 0
0+
b11100100110001 "
b11100100110001 *
b11100100110001 ,
b11100100110001 9
b1 1
b1 4
b1 5
1#
#615000
0#
#620000
b10 1
b10 4
b10 5
1#
#625000
0#
#630000
b11 1
b11 4
b11 5
1#
#635000
0#
#640000
1#
#645000
0#
#650000
1#
#650100
b1010 (
b0 $
b0 )
