26.9-picoversat/simulation/icarus/xtop.vcd
$date
	Thu Sep 26 21:37:35 2019
$end
$version
	Icarus Verilog
$end
$timescale
	1ps
$end
$scope module xtop_tb $end
$var wire 32 ! r0 [31:0] $end
$var wire 32 " r1 [31:0] $end
$var wire 32 # r10 [31:0] $end
$var wire 32 $ r11 [31:0] $end
$var wire 32 % r12 [31:0] $end
$var wire 32 & r13 [31:0] $end
$var wire 32 ' r14 [31:0] $end
$var wire 32 ( r15 [31:0] $end
$var wire 32 ) r2 [31:0] $end
$var wire 32 * r3 [31:0] $end
$var wire 32 + r4 [31:0] $end
$var wire 32 , r5 [31:0] $end
$var wire 32 - r6 [31:0] $end
$var wire 32 . r7 [31:0] $end
$var wire 32 / r8 [31:0] $end
$var wire 32 0 r9 [31:0] $end
$var wire 1 1 trap $end
$var wire 1 2 par_we $end
$var wire 32 3 par_out [31:0] $end
$var wire 14 4 par_addr [13:0] $end
$var reg 1 5 clk $end
$var reg 32 6 par_in [31:0] $end
$var reg 1 7 rst $end
$var integer 32 8 k [31:0] $end
$var integer 32 9 start_time [31:0] $end
$scope module uut $end
$var wire 1 5 clk $end
$var wire 32 : ext_data_to_rd [31:0] $end
$var wire 32 ; par_in [31:0] $end
$var wire 32 < par_out [31:0] $end
$var wire 1 = par_re $end
$var wire 1 2 par_we $end
$var wire 1 7 rst $end
$var wire 1 1 trap $end
$var wire 1 > regf_sel $end
$var wire 32 ? regf_data_to_rd [31:0] $end
$var wire 14 @ pc [13:0] $end
$var wire 14 A par_addr [13:0] $end
$var wire 1 B mem_sel $end
$var wire 32 C mem_data_to_rd [31:0] $end
$var wire 32 D instruction [31:0] $end
$var wire 1 E ext_sel $end
$var wire 1 F data_we $end
$var wire 32 G data_to_wr [31:0] $end
$var wire 32 H data_to_rd [31:0] $end
$var wire 1 I data_sel $end
$var wire 15 J data_addr [14:0] $end
$var wire 1 K cprt_sel $end
$scope module addr_decoder $end
$var wire 32 L ext_data_to_rd [31:0] $end
$var wire 1 I sel $end
$var wire 32 M regf_data_to_rd [31:0] $end
$var wire 32 N mem_data_to_rd [31:0] $end
$var wire 15 O addr [14:0] $end
$var reg 1 K cprt_sel $end
$var reg 32 P data_to_rd [31:0] $end
$var reg 1 E ext_sel $end
$var reg 1 B mem_sel $end
$var reg 1 > regf_sel $end
$var reg 1 1 trap_sel $end
$upscope $end
$scope module controller $end
$var wire 1 Q alu_arith_ops $end
$var wire 1 R alu_imm_ops $end
$var wire 1 S alu_logic_ops $end
$var wire 1 T alu_mem_ops $end
$var wire 1 U alu_ops $end
$var wire 32 V and_res [31:0] $end
$var wire 1 W branch_ops $end
$var wire 1 5 clk $end
$var wire 1 X imm_ops $end
$var wire 1 Y load_imm_ops $end
$var wire 1 Z load_mem_ops $end
$var wire 1 [ load_ops $end
$var wire 32 \ mem_data_from [31:0] $end
$var wire 32 ] mem_data_to [31:0] $end
$var wire 1 I mem_sel $end
$var wire 1 F mem_we $end
$var wire 1 7 rst $end
$var wire 1 ^ store_mem_ops $end
$var wire 32 _ xor_res [31:0] $end
$var wire 32 ` operand [31:0] $end
$var wire 4 a opcode [3:0] $end
$var wire 32 b instruction [31:0] $end
$var wire 32 c imm [31:0] $end
$var wire 1 d carry_n_1 $end
$var wire 1 e carry_n $end
$var wire 33 f adder_res_2 [32:0] $end
$var wire 32 g adder_res_1 [31:0] $end
$var reg 1 h alu_carry $end
$var reg 1 i alu_negative $end
$var reg 1 j alu_overflow $end
$var reg 33 k alu_result [32:0] $end
$var reg 15 l mem_addr [14:0] $end
$var reg 32 m operand_int [31:0] $end
$var reg 14 n pc [13:0] $end
$var reg 32 o regA [31:0] $end
$var reg 32 p regB [31:0] $end
$var reg 32 q regC [31:0] $end
$upscope $end
$scope module cprint $end
$var wire 1 5 clk $end
$var wire 8 r data_in [7:0] $end
$var wire 1 s sel $end
$upscope $end
$scope module ram $end
$var wire 1 5 clk $end
$var wire 14 t data_addr [13:0] $end
$var wire 14 u data_addr_int [13:0] $end
$var wire 1 v data_en_int $end
$var wire 32 w data_in [31:0] $end
$var wire 32 x data_in_int [31:0] $end
$var wire 32 y data_out [31:0] $end
$var wire 1 B data_sel $end
$var wire 1 F data_we $end
$var wire 1 z data_we_int $end
$var wire 1 { instr_en $end
$var wire 14 | pc [13:0] $end
$var reg 32 } data_out_int [31:0] $end
$var reg 32 ~ instruction [31:0] $end
$upscope $end
$scope module regf $end
$var wire 4 !" addr [3:0] $end
$var wire 1 5 clk $end
$var wire 32 "" data_in [31:0] $end
$var wire 1 > sel $end
$var wire 1 F we $end
$var wire 32 #" data_out [31:0] $end
$upscope $end
$upscope $end
$upscope $end
$enddefinitions $end
#0
$dumpvars
bx #"
bx ""
bx !"
bx ~
bx }
bx |
1{
xz
bx y
bx x
bx w
xv
bx u
bx t
xs
bx r
bx q
bx p
bx o
bx n
b0 m
bx l
b0 k
0j
0i
0h
bx g
bx f
xe
xd
bx c
bx b
bx a
b0 `
bx _
x^
bx ]
b0 \
x[
xZ
xY
xX
xW
b0 V
xU
xT
xS
xR
xQ
b0 P
bx O
bx N
bx M
b0 L
xK
bx J
xI
b0 H
bx G
xF
xE
bx D
bx C
xB
bx A
bx @
bx ?
x>
x=
bx <
b0 ;
b0 :
bx 9
bx 8
07
b0 6
15
bx 4
bx 3
x2
x1
bx 0
bx /
bx .
bx -
bx ,
bx +
bx *
bx )
bx (
bx '
bx &
bx %
bx $
bx #
bx "
bx !
$end
#5000
05
#10000
15
#11000
0d
b0 g
0e
b0 _
b0 r
b0 @
b0 n
b0 |
b0 f
b0 x
b0 3
b0 <
b0 G
b0 ]
b0 w
b0 ""
b0 o
b0 p
b0 q
17
#15000
05
#20000
0I
0=
b0 ?
b0 M
b0 #"
b0 !"
b0 u
b0 t
b0 4
b0 A
01
0E
0K
0>
0v
0B
b0 J
b0 O
b0 l
0T
0U
0s
02
1[
1X
b0 c
0W
0S
0Q
0R
0z
0F
0^
0Z
1Y
b110 a
b1100000000000000000000000000000 D
b1100000000000000000000000000000 b
b1100000000000000000000000000000 ~
15
#21000
b10000 8
b10101 9
07
#25000
05
#30000
b1 @
b1 n
b1 |
15
#35000
05
#40000
bx H
bx P
bx \
bx ?
bx M
bx #"
1>
1I
b100000000000000 J
b100000000000000 O
b100000000000000 l
0[
0X
b100000000000000 c
1z
1F
1^
0Y
b1001 a
b10 @
b10 n
b10 |
b10010000000000000100000000000000 D
b10010000000000000100000000000000 b
b10010000000000000100000000000000 ~
15
#45000
05
#50000
0I
b111 g
b111 _
b111 f
b111 `
b111 !"
b111 u
b111 t
b111 4
b111 A
0v
0B
0>
b111 m
b111 J
b111 O
b111 l
1[
1X
b0 H
b0 P
b0 \
b111 c
0z
0F
0^
1Y
b0 ?
b0 M
b0 #"
b110 a
b11 @
b11 n
b11 |
b0 !
b1100000000000000000000000000111 D
b1100000000000000000000000000111 b
b1100000000000000000000000000111 ~
15
#55000
05
#60000
bx H
bx P
bx \
bx ?
bx M
bx #"
1>
1I
b0 `
b1000 !"
b1000 u
b1000 t
b1000 4
b1000 A
b0 m
b100000000001000 J
b100000000001000 O
b100000000001000 l
0[
0X
b100000000001000 c
1z
1F
1^
0Y
b111 g
b111 _
b0 V
b111 r
b1001 a
b111 f
b111 x
b111 3
b111 <
b111 G
b111 ]
b111 w
b111 ""
b111 o
b100 @
b100 n
b100 |
b10010000000000000100000000001000 D
b10010000000000000100000000001000 b
b10010000000000000100000000001000 ~
15
#65000
05
#70000
0I
b10001 g
b1101 _
b10 V
b10001 f
b1010 `
b1010 !"
b1010 u
b1010 t
b1010 4
b1010 A
0v
0B
0>
b1010 m
b1010 J
b1010 O
b1010 l
1[
1X
b0 H
b0 P
b0 \
b1010 c
0z
0F
0^
1Y
b0 ?
b0 M
b0 #"
b110 a
b101 @
b101 n
b101 |
b111 /
b1100000000000000000000000001010 D
b1100000000000000000000000001010 b
b1100000000000000000000000001010 ~
15
#75000
05
#80000
bx H
bx P
bx \
bx ?
bx M
bx #"
1>
1I
b0 `
b1001 !"
b1001 u
b1001 t
b1001 4
b1001 A
b0 m
b100000000001001 J
b100000000001001 O
b100000000001001 l
0[
0X
b100000000001001 c
1z
1F
1^
0Y
b1010 g
b1010 _
b0 V
b1010 r
b1001 a
b1010 f
b1010 x
b1010 3
b1010 <
b1010 G
b1010 ]
b1010 w
b1010 ""
b1010 o
b110 @
b110 n
b110 |
b10010000000000000100000000001001 D
b10010000000000000100000000001001 b
b10010000000000000100000000001001 ~
15
#85000
05
#90000
b1 !"
b1 u
b1 t
b1 4
b1 A
1>
b100000000000001 J
b100000000000001 O
b100000000000001 l
bx H
bx P
bx \
b100000000000001 c
bx ?
bx M
bx #"
b111 @
b111 n
b111 |
b1010 0
b10010000000000000100000000000001 D
b10010000000000000100000000000001 b
b10010000000000000100000000000001 ~
15
#95000
05
#100000
b10100 g
b0 _
b1010 V
b10100 f
b1010 `
b1010 m
1[
0z
0F
0^
1Z
b1010 H
b1010 P
b1010 \
b1000 a
b1010 ?
b1010 M
b1010 #"
b1000 @
b1000 n
b1000 |
b10000000000000000100000000000001 D
b10000000000000000100000000000001 b
b10000000000000000100000000000001 ~
b1010 "
15
#105000
05
#110000
0I
b1010 g
b1010 _
b0 V
b0 H
b0 P
b0 \
b0 ?
b0 M
b0 #"
b1010 f
b0 `
b0 !"
b10000 u
b10000 t
b10000 4
b10000 A
0v
0B
0>
1W
b0 m
b10000 J
b10000 O
b10000 l
0[
b10000 c
0Z
b1100 a
b1001 @
b1001 n
b1001 |
b11000000000000000000000000010000 D
b11000000000000000000000000010000 b
b11000000000000000000000000010000 ~
15
#115000
05
#120000
b0 u
b0 t
b0 4
b0 A
0W
b1001 k
1U
b0 J
b0 O
b0 l
1Q
1X
b0 c
1R
b1001 g
b1001 _
b1001 r
b0 a
b1001 f
b1001 x
b1001 3
b1001 <
b1001 G
b1001 ]
b1001 w
b1001 ""
b1001 o
b1010 @
b1010 n
b1010 |
b0 D
b0 b
b0 ~
15
#125000
05
#130000
b1010 H
b1010 P
b1010 \
b1010 ?
b1010 M
b1010 #"
1>
1I
b1 !"
b1 u
b1 t
b1 4
b1 A
0U
b100000000000001 J
b100000000000001 O
b100000000000001 l
0T
0Q
0X
b100000000000001 c
0R
1z
1F
1^
b0 k
b1001 a
b1011 @
b1011 n
b1011 |
b10010000000000000100000000000001 D
b10010000000000000100000000000001 b
b10010000000000000100000000000001 ~
15
#135000
05
#140000
b1001 g
b1001 _
b0 V
b1001 f
b0 `
b0 !"
b0 u
b0 t
b0 4
b0 A
1>
b0 m
b100000000000000 J
b100000000000000 O
b100000000000000 l
1[
b100000000000000 c
0z
0F
0^
1Z
b0 H
b0 P
b0 \
b1000 a
b0 ?
b0 M
b0 #"
b1100 @
b1100 n
b1100 |
b10000000000000000100000000000000 D
b10000000000000000100000000000000 b
b10000000000000000100000000000000 ~
b1001 "
15
#145000
05
#150000
b111 k
b111 `
b111 m
1I
b111 H
b111 P
b111 \
b111 ?
b111 M
b111 #"
1T
b1000 !"
b1000 u
b1000 t
b1000 4
b1000 A
1>
1U
b100000000001000 J
b100000000001000 O
b100000000001000 l
1Q
0[
b100000000001000 c
0Z
b111 g
b111 _
b0 r
b1 a
b1101 @
b1101 n
b1101 |
b111 f
b0 x
b0 3
b0 <
b0 G
b0 ]
b0 w
b0 ""
b0 o
b10000000000000100000000001000 D
b10000000000000100000000001000 b
b10000000000000100000000001000 ~
15
#155000
05
#160000
b0 `
b0 H
b0 P
b0 \
b0 ?
b0 M
b0 #"
0T
b0 !"
b0 u
b0 t
b0 4
b0 A
1>
0U
b0 m
b100000000000000 J
b100000000000000 O
b100000000000000 l
0Q
b100000000000000 c
1z
1F
1^
b111 g
b0 k
b111 _
b0 V
b111 r
b1001 a
b111 f
b111 x
b111 3
b111 <
b111 G
b111 ]
b111 w
b111 ""
b111 o
b1110 @
b1110 n
b1110 |
b10010000000000000100000000000000 D
b10010000000000000100000000000000 b
b10010000000000000100000000000000 ~
15
#165000
05
#170000
0I
b111 !"
b111 u
b111 t
b111 4
b111 A
0v
0B
0>
1W
b111 J
b111 O
b111 l
b0 H
b0 P
b0 \
b111 c
0z
0F
0^
b0 ?
b0 M
b0 #"
b1110 a
b1111 @
b1111 n
b1111 |
b111 !
b11100000000000000000000000000111 D
b11100000000000000000000000000111 b
b11100000000000000000000000000111 ~
15
#175000
05
#180000
b0 !"
b0 u
b0 t
b0 4
b0 A
0W
b110 k
1U
b0 J
b0 O
b0 l
1Q
1X
b0 c
1R
b110 g
b110 _
b110 r
b0 a
b110 f
b110 x
b110 3
b110 <
b110 G
b110 ]
b110 w
b110 ""
b110 o
b111 @
b111 n
b111 |
b0 D
b0 b
b0 ~
15
#185000
05
#190000
b1111 g
b1111 _
b1111 f
b1001 `
b1001 m
b1001 H
b1001 P
b1001 \
b1001 ?
b1001 M
b1001 #"
1>
1I
b1 !"
b1 u
b1 t
b1 4
b1 A
0U
b100000000000001 J
b100000000000001 O
b100000000000001 l
0T
0Q
0X
1[
b100000000000001 c
0R
1Z
b0 k
b1000 a
b1000 @
b1000 n
b1000 |
b10000000000000000100000000000001 D
b10000000000000000100000000000001 b
b10000000000000000100000000000001 ~
15
#195000
05
#200000
0I
b0 H
b0 P
b0 \
b0 ?
b0 M
b0 #"
b0 `
b0 !"
b10000 u
b10000 t
b10000 4
b10000 A
0v
0B
0>
1W
b0 m
b10000 J
b10000 O
b10000 l
0[
b10000 c
0Z
b1001 g
b1001 _
b0 V
b1001 r
b1100 a
b1001 f
b1001 x
b1001 3
b1001 <
b1001 G
b1001 ]
b1001 w
b1001 ""
b1001 o
b1001 @
b1001 n
b1001 |
b11000000000000000000000000010000 D
b11000000000000000000000000010000 b
b11000000000000000000000000010000 ~
15
#205000
05
#210000
b0 u
b0 t
b0 4
b0 A
0W
b1000 k
1U
b0 J
b0 O
b0 l
1Q
1X
b0 c
1R
b1000 g
b1000 _
b1000 r
b0 a
b1010 @
b1010 n
b1010 |
b1000 f
b1000 x
b1000 3
b1000 <
b1000 G
b1000 ]
b1000 w
b1000 ""
b1000 o
b0 D
b0 b
b0 ~
15
#215000
05
#220000
b1001 H
b1001 P
b1001 \
b1001 ?
b1001 M
b1001 #"
1>
1I
b1 !"
b1 u
b1 t
b1 4
b1 A
0U
b100000000000001 J
b100000000000001 O
b100000000000001 l
0T
0Q
0X
b100000000000001 c
0R
1z
1F
1^
b0 k
b1001 a
b1011 @
b1011 n
b1011 |
b10010000000000000100000000000001 D
b10010000000000000100000000000001 b
b10010000000000000100000000000001 ~
15
#225000
05
#230000
b1111 g
b1111 _
b0 V
b1111 f
b111 `
b0 !"
b0 u
b0 t
b0 4
b0 A
1>
b111 m
b100000000000000 J
b100000000000000 O
b100000000000000 l
1[
b111 H
b111 P
b111 \
b100000000000000 c
0z
0F
0^
1Z
b111 ?
b111 M
b111 #"
b1000 a
b1100 @
b1100 n
b1100 |
b1000 "
b10000000000000000100000000000000 D
b10000000000000000100000000000000 b
b10000000000000000100000000000000 ~
15
#235000
05
#240000
b111 ?
b111 M
b111 #"
1I
b111 H
b111 P
b111 \
1T
b111 `
b1000 !"
b1000 u
b1000 t
b1000 4
b1000 A
1>
1U
b1110 k
b111 m
b100000000001000 J
b100000000001000 O
b100000000001000 l
1Q
0[
b100000000001000 c
0Z
b1110 g
b0 _
b111 V
b111 r
b1 a
b1110 f
b111 x
b111 3
b111 <
b111 G
b111 ]
b111 w
b111 ""
b111 o
b1101 @
b1101 n
b1101 |
b10000000000000100000000001000 D
b10000000000000100000000001000 b
b10000000000000100000000001000 ~
15
#245000
05
#250000
b0 `
b111 H
b111 P
b111 \
0T
b0 !"
b0 u
b0 t
b0 4
b0 A
1>
0U
b0 m
b100000000000000 J
b100000000000000 O
b100000000000000 l
0Q
b100000000000000 c
1z
1F
1^
b1110 g
b0 k
b1110 _
b0 V
b1110 r
b1001 a
b1110 @
b1110 n
b1110 |
b1110 f
b1110 x
b1110 3
b1110 <
b1110 G
b1110 ]
b1110 w
b1110 ""
b1110 o
b10010000000000000100000000000000 D
b10010000000000000100000000000000 b
b10010000000000000100000000000000 ~
15
#255000
05
#260000
0I
b111 !"
b111 u
b111 t
b111 4
b111 A
0v
0B
0>
1W
b111 J
b111 O
b111 l
b111 c
0z
0F
0^
b0 H
b0 P
b0 \
b1110 a
b0 ?
b0 M
b0 #"
b1111 @
b1111 n
b1111 |
b11100000000000000000000000000111 D
b11100000000000000000000000000111 b
b11100000000000000000000000000111 ~
b1110 !
15
#265000
05
#270000
b0 !"
b0 u
b0 t
b0 4
b0 A
0W
b1101 k
1U
b0 J
b0 O
b0 l
1Q
1X
b0 c
1R
b1101 g
b1101 _
b1101 r
b0 a
b111 @
b111 n
b111 |
b1101 f
b1101 x
b1101 3
b1101 <
b1101 G
b1101 ]
b1101 w
b1101 ""
b1101 o
b0 D
b0 b
b0 ~
15
#275000
05
#280000
b10101 g
b101 _
b1000 V
b10101 f
b1000 `
b1000 m
b1000 H
b1000 P
b1000 \
b1000 ?
b1000 M
b1000 #"
1>
1I
b1 !"
b1 u
b1 t
b1 4
b1 A
0U
b100000000000001 J
b100000000000001 O
b100000000000001 l
0T
0Q
0X
1[
b100000000000001 c
0R
1Z
b0 k
b1000 a
b1000 @
b1000 n
b1000 |
b10000000000000000100000000000001 D
b10000000000000000100000000000001 b
b10000000000000000100000000000001 ~
15
#285000
05
#290000
0I
b0 V
b0 H
b0 P
b0 \
b0 ?
b0 M
b0 #"
b0 `
b0 !"
b10000 u
b10000 t
b10000 4
b10000 A
0v
0B
0>
1W
b0 m
b10000 J
b10000 O
b10000 l
0[
b10000 c
0Z
b1000 g
b1000 _
b1000 r
b1100 a
b1001 @
b1001 n
b1001 |
b1000 f
b1000 x
b1000 3
b1000 <
b1000 G
b1000 ]
b1000 w
b1000 ""
b1000 o
b11000000000000000000000000010000 D
b11000000000000000000000000010000 b
b11000000000000000000000000010000 ~
15
#295000
05
#300000
b0 u
b0 t
b0 4
b0 A
0W
b111 k
1U
b0 J
b0 O
b0 l
1Q
1X
b0 c
1R
b111 g
b111 _
b111 r
b0 a
b111 f
b111 x
b111 3
b111 <
b111 G
b111 ]
b111 w
b111 ""
b111 o
b1010 @
b1010 n
b1010 |
b0 D
b0 b
b0 ~
15
#305000
05
#310000
b1000 H
b1000 P
b1000 \
b1000 ?
b1000 M
b1000 #"
1>
1I
b1 !"
b1 u
b1 t
b1 4
b1 A
0U
b100000000000001 J
b100000000000001 O
b100000000000001 l
0T
0Q
0X
b100000000000001 c
0R
1z
1F
1^
b0 k
b1001 a
b1011 @
b1011 n
b1011 |
b10010000000000000100000000000001 D
b10010000000000000100000000000001 b
b10010000000000000100000000000001 ~
15
#315000
05
#320000
b10101 g
b1001 _
b110 V
b10101 f
b1110 `
b0 !"
b0 u
b0 t
b0 4
b0 A
1>
b1110 m
b100000000000000 J
b100000000000000 O
b100000000000000 l
1[
b100000000000000 c
0z
0F
0^
1Z
b1110 H
b1110 P
b1110 \
b1000 a
b1110 ?
b1110 M
b1110 #"
b1100 @
b1100 n
b1100 |
b10000000000000000100000000000000 D
b10000000000000000100000000000000 b
b10000000000000000100000000000000 ~
b111 "
15
#325000
05
#330000
1I
b111 H
b111 P
b111 \
b111 ?
b111 M
b111 #"
1T
b111 `
b1000 !"
b1000 u
b1000 t
b1000 4
b1000 A
1>
1U
b10101 k
b111 m
b100000000001000 J
b100000000001000 O
b100000000001000 l
1Q
0[
b100000000001000 c
0Z
b10101 g
b1001 _
b110 V
b1110 r
b1 a
b1101 @
b1101 n
b1101 |
b10101 f
b1110 x
b1110 3
b1110 <
b1110 G
b1110 ]
b1110 w
b1110 ""
b1110 o
b10000000000000100000000001000 D
b10000000000000100000000001000 b
b10000000000000100000000001000 ~
15
#335000
05
#340000
b0 `
b1110 H
b1110 P
b1110 \
b1110 ?
b1110 M
b1110 #"
0T
b0 !"
b0 u
b0 t
b0 4
b0 A
1>
0U
b0 m
b100000000000000 J
b100000000000000 O
b100000000000000 l
0Q
b100000000000000 c
1z
1F
1^
b10101 g
b0 k
b10101 _
b0 V
b10101 r
b1001 a
b10101 f
b10101 x
b10101 3
b10101 <
b10101 G
b10101 ]
b10101 w
b10101 ""
b10101 o
b1110 @
b1110 n
b1110 |
b10010000000000000100000000000000 D
b10010000000000000100000000000000 b
b10010000000000000100000000000000 ~
15
#345000
05
#350000
0I
b111 !"
b111 u
b111 t
b111 4
b111 A
0v
0B
0>
1W
b111 J
b111 O
b111 l
b0 H
b0 P
b0 \
b111 c
0z
0F
0^
b0 ?
b0 M
b0 #"
b1110 a
b1111 @
b1111 n
b1111 |
b10101 !
b11100000000000000000000000000111 D
b11100000000000000000000000000111 b
b11100000000000000000000000000111 ~
15
#355000
05
#360000
b0 !"
b0 u
b0 t
b0 4
b0 A
0W
b10100 k
1U
b0 J
b0 O
b0 l
1Q
1X
b0 c
1R
b10100 g
b10100 _
b10100 r
b0 a
b10100 f
b10100 x
b10100 3
b10100 <
b10100 G
b10100 ]
b10100 w
b10100 ""
b10100 o
b111 @
b111 n
b111 |
b0 D
b0 b
b0 ~
15
#365000
05
#370000
b11011 g
b10011 _
b100 V
b11011 f
b111 `
b111 m
b111 H
b111 P
b111 \
b111 ?
b111 M
b111 #"
1>
1I
b1 !"
b1 u
b1 t
b1 4
b1 A
0U
b100000000000001 J
b100000000000001 O
b100000000000001 l
0T
0Q
0X
1[
b100000000000001 c
0R
1Z
b0 k
b1000 a
b1000 @
b1000 n
b1000 |
b10000000000000000100000000000001 D
b10000000000000000100000000000001 b
b10000000000000000100000000000001 ~
15
#375000
05
#380000
0I
b0 H
b0 P
b0 \
b0 ?
b0 M
b0 #"
b0 `
b0 !"
b10000 u
b10000 t
b10000 4
b10000 A
0v
0B
0>
1W
b0 m
b10000 J
b10000 O
b10000 l
0[
b10000 c
0Z
b111 g
b111 _
b0 V
b111 r
b1100 a
b111 f
b111 x
b111 3
b111 <
b111 G
b111 ]
b111 w
b111 ""
b111 o
b1001 @
b1001 n
b1001 |
b11000000000000000000000000010000 D
b11000000000000000000000000010000 b
b11000000000000000000000000010000 ~
15
#385000
05
#390000
b0 u
b0 t
b0 4
b0 A
0W
b110 k
1U
b0 J
b0 O
b0 l
1Q
1X
b0 c
1R
b110 g
b110 _
b110 r
b0 a
b1010 @
b1010 n
b1010 |
b110 f
b110 x
b110 3
b110 <
b110 G
b110 ]
b110 w
b110 ""
b110 o
b0 D
b0 b
b0 ~
15
#395000
05
#400000
b111 H
b111 P
b111 \
b111 ?
b111 M
b111 #"
1>
1I
b1 !"
b1 u
b1 t
b1 4
b1 A
0U
b100000000000001 J
b100000000000001 O
b100000000000001 l
0T
0Q
0X
b100000000000001 c
0R
1z
1F
1^
b0 k
b1001 a
b1011 @
b1011 n
b1011 |
b10010000000000000100000000000001 D
b10010000000000000100000000000001 b
b10010000000000000100000000000001 ~
15
#405000
05
#410000
b11011 g
b10011 _
b100 V
b11011 f
b10101 `
b0 !"
b0 u
b0 t
b0 4
b0 A
1>
b10101 m
b100000000000000 J
b100000000000000 O
b100000000000000 l
1[
b10101 H
b10101 P
b10101 \
b100000000000000 c
0z
0F
0^
1Z
b10101 ?
b10101 M
b10101 #"
b1000 a
b1100 @
b1100 n
b1100 |
b110 "
b10000000000000000100000000000000 D
b10000000000000000100000000000000 b
b10000000000000000100000000000000 ~
15
#415000
05
#420000
1I
b111 H
b111 P
b111 \
b111 ?
b111 M
b111 #"
1T
b111 `
b1000 !"
b1000 u
b1000 t
b1000 4
b1000 A
1>
1U
b11100 k
b111 m
b100000000001000 J
b100000000001000 O
b100000000001000 l
1Q
0[
b100000000001000 c
0Z
b11100 g
b10010 _
b101 V
b10101 r
b1 a
b11100 f
b10101 x
b10101 3
b10101 <
b10101 G
b10101 ]
b10101 w
b10101 ""
b10101 o
b1101 @
b1101 n
b1101 |
b10000000000000100000000001000 D
b10000000000000100000000001000 b
b10000000000000100000000001000 ~
15
#425000
05
#430000
b0 `
b10101 H
b10101 P
b10101 \
b10101 ?
b10101 M
b10101 #"
0T
b0 !"
b0 u
b0 t
b0 4
b0 A
1>
0U
b0 m
b100000000000000 J
b100000000000000 O
b100000000000000 l
0Q
b100000000000000 c
1z
1F
1^
b11100 g
b0 k
b11100 _
b0 V
b11100 r
b1001 a
b1110 @
b1110 n
b1110 |
b11100 f
b11100 x
b11100 3
b11100 <
b11100 G
b11100 ]
b11100 w
b11100 ""
b11100 o
b10010000000000000100000000000000 D
b10010000000000000100000000000000 b
b10010000000000000100000000000000 ~
15
#435000
05
#440000
0I
b111 !"
b111 u
b111 t
b111 4
b111 A
0v
0B
0>
1W
b111 J
b111 O
b111 l
b111 c
0z
0F
0^
b0 H
b0 P
b0 \
b1110 a
b0 ?
b0 M
b0 #"
b1111 @
b1111 n
b1111 |
b11100000000000000000000000000111 D
b11100000000000000000000000000111 b
b11100000000000000000000000000111 ~
b11100 !
15
#445000
05
#450000
b0 !"
b0 u
b0 t
b0 4
b0 A
0W
b11011 k
1U
b0 J
b0 O
b0 l
1Q
1X
b0 c
1R
b11011 g
b11011 _
b11011 r
b0 a
b111 @
b111 n
b111 |
b11011 f
b11011 x
b11011 3
b11011 <
b11011 G
b11011 ]
b11011 w
b11011 ""
b11011 o
b0 D
b0 b
b0 ~
15
#455000
05
#460000
b100001 g
b11101 _
b10 V
b100001 f
b110 `
b110 m
b110 H
b110 P
b110 \
b110 ?
b110 M
b110 #"
1>
1I
b1 !"
b1 u
b1 t
b1 4
b1 A
0U
b100000000000001 J
b100000000000001 O
b100000000000001 l
0T
0Q
0X
1[
b100000000000001 c
0R
1Z
b0 k
b1000 a
b1000 @
b1000 n
b1000 |
b10000000000000000100000000000001 D
b10000000000000000100000000000001 b
b10000000000000000100000000000001 ~
15
#465000
05
#470000
0I
b0 H
b0 P
b0 \
b0 ?
b0 M
b0 #"
b0 `
b0 !"
b10000 u
b10000 t
b10000 4
b10000 A
0v
0B
0>
1W
b0 m
b10000 J
b10000 O
b10000 l
0[
b10000 c
0Z
b110 g
b110 _
b0 V
b110 r
b1100 a
b1001 @
b1001 n
b1001 |
b110 f
b110 x
b110 3
b110 <
b110 G
b110 ]
b110 w
b110 ""
b110 o
b11000000000000000000000000010000 D
b11000000000000000000000000010000 b
b11000000000000000000000000010000 ~
15
#475000
05
#480000
b0 u
b0 t
b0 4
b0 A
0W
b101 k
1U
b0 J
b0 O
b0 l
1Q
1X
b0 c
1R
b101 g
b101 _
b101 r
b0 a
b101 f
b101 x
b101 3
b101 <
b101 G
b101 ]
b101 w
b101 ""
b101 o
b1010 @
b1010 n
b1010 |
b0 D
b0 b
b0 ~
15
#485000
05
#490000
b110 H
b110 P
b110 \
b110 ?
b110 M
b110 #"
1>
1I
b1 !"
b1 u
b1 t
b1 4
b1 A
0U
b100000000000001 J
b100000000000001 O
b100000000000001 l
0T
0Q
0X
b100000000000001 c
0R
1z
1F
1^
b0 k
b1001 a
b1011 @
b1011 n
b1011 |
b10010000000000000100000000000001 D
b10010000000000000100000000000001 b
b10010000000000000100000000000001 ~
15
#495000
05
#500000
b100001 g
b11001 _
b100 V
b100001 f
b11100 `
b0 !"
b0 u
b0 t
b0 4
b0 A
1>
b11100 m
b100000000000000 J
b100000000000000 O
b100000000000000 l
1[
b100000000000000 c
0z
0F
0^
1Z
b11100 H
b11100 P
b11100 \
b1000 a
b11100 ?
b11100 M
b11100 #"
b1100 @
b1100 n
b1100 |
b10000000000000000100000000000000 D
b10000000000000000100000000000000 b
b10000000000000000100000000000000 ~
b101 "
15
#505000
05
#510000
1I
b111 H
b111 P
b111 \
b111 ?
b111 M
b111 #"
1T
b111 `
b1000 !"
b1000 u
b1000 t
b1000 4
b1000 A
1>
1U
b100011 k
b111 m
b100000000001000 J
b100000000001000 O
b100000000001000 l
1Q
0[
b100000000001000 c
0Z
b100011 g
b11011 _
b100 V
b11100 r
b1 a
b1101 @
b1101 n
b1101 |
b100011 f
b11100 x
b11100 3
b11100 <
b11100 G
b11100 ]
b11100 w
b11100 ""
b11100 o
b10000000000000100000000001000 D
b10000000000000100000000001000 b
b10000000000000100000000001000 ~
15
#515000
05
#520000
b0 `
b11100 H
b11100 P
b11100 \
b11100 ?
b11100 M
b11100 #"
0T
b0 !"
b0 u
b0 t
b0 4
b0 A
1>
0U
b0 m
b100000000000000 J
b100000000000000 O
b100000000000000 l
0Q
b100000000000000 c
1z
1F
1^
b100011 g
b0 k
b100011 _
b0 V
b100011 r
b1001 a
b100011 f
b100011 x
b100011 3
b100011 <
b100011 G
b100011 ]
b100011 w
b100011 ""
b100011 o
b1110 @
b1110 n
b1110 |
b10010000000000000100000000000000 D
b10010000000000000100000000000000 b
b10010000000000000100000000000000 ~
15
#525000
05
#530000
0I
b111 !"
b111 u
b111 t
b111 4
b111 A
0v
0B
0>
1W
b111 J
b111 O
b111 l
b0 H
b0 P
b0 \
b111 c
0z
0F
0^
b0 ?
b0 M
b0 #"
b1110 a
b1111 @
b1111 n
b1111 |
b100011 !
b11100000000000000000000000000111 D
b11100000000000000000000000000111 b
b11100000000000000000000000000111 ~
15
#535000
05
#540000
b0 !"
b0 u
b0 t
b0 4
b0 A
0W
b100010 k
1U
b0 J
b0 O
b0 l
1Q
1X
b0 c
1R
b100010 g
b100010 _
b100010 r
b0 a
b100010 f
b100010 x
b100010 3
b100010 <
b100010 G
b100010 ]
b100010 w
b100010 ""
b100010 o
b111 @
b111 n
b111 |
b0 D
b0 b
b0 ~
15
#545000
05
